individual2.Rmd
…
drivers = per %>% filter(PER_TYP == 1)

Join accident and driver table (work out which variable(s) to use)

acc.drivers <- inner_join(acc, drivers, by= "ST_CASE")

Tally the number of accidents by day of the week (DAY_WEEK), hour of the day (HOUR) and gender (SEX). Visualize the results!

acc.driver.clean <- acc.drivers %>% group_by(DAY_WEEK, HOUR.x, SEX)
tally(acc.driver.clean)

## # A tibble: 579 x 4
## # Groups:   DAY_WEEK, HOUR.x [?]
##    DAY_WEEK HOUR.x   SEX     n
##       <int>  <int> <int> <int>
##  1        1      0     1   305
##  2        1      0     2    74
##  3        1      0     8     1
##  4        1      0     9    20
##  5        1      1     1   300
##  6        1      1     2    77
##  7        1      1     9    14
##  8        1      2     1   338
##  9        1      2     2   101
## 10        1      2     8     4
## #  with 569 more rows
…
colnames(glc.us)<-glc.us[1,]
glc.us<-glc.us[-1,]
colnames(glc.terr)<-glc.terr[1,]
glc.terr<-glc.terr[-1,]

acc <- mutate(acc, `County Code` = COUNTY)
acc$COUNTY <- as.numeric(acc$COUNTY)
acc$`County Code` <- as.numeric(acc$`County Code`)
joined.glc<- inner_join(glc.us, glc.terr, by = "County Code")
joined.glc$`County Code` <- as.numeric(joined.glc$`County Code`)
three_join <- inner_join(joined.glc, acc, by = "County Code")
filtered_three_join <- select(three_join, `County Code`, LATITUDE, LONGITUD, COUNTY, DAY, MONTH, YEAR, HOUR, ST_CASE)
filtered_three_join

## # A tibble: 4,988,715 x 9
##    `County Code` LATITUDE LONGITUD COUNTY   DAY MONTH  YEAR  HOUR ST_CASE
##            <dbl>    <dbl>    <dbl>  <dbl> <int> <int> <int> <int>   <int>
##  1           123     32.9    -85.8    123    11     1  2017     0   10025
##  2           123     32.6    -85.8    123    17     5  2017     6   10293
##  3           123     32.6    -85.8    123    26    10  2017    18   10674
##  4           123     32.9    -85.9    123     8     1  2017    16   10835
##  5           123     32.9    -86.0    123    16     2  2017    14   10836
##  6           123     35.1    -90.6    123     6     1  2017     8   50014
##  7           123     35.1    -90.6    123    13     4  2017     7   50104
##  8           123     35.1    -90.8    123    18     4  2017    19   50116
##  9           123     35.0    -90.7    123    14     7  2017     1   50256
## 10           123     35.0    -90.9    123    15    10  2017     8   50364
## #  with 4,988,705 more rows
…
